{
	"additionalNodes": [],
	"additionalParameters": {
		"root": {
			"height": 148,
			"width": 241
		}
	},
	"inputs": [ {
		"command": "BETS_UNIT",
		"name": "lugerID"
	}, {
		"command": "BETS_POSITION",
		"name": "attackPosition"
	} ],
	"outputs": [],
	"properties": {
		"Lca1FjL9fk465Z8p6cmPf2D1AEMel29F": {
			"height": 92,
			"title": "nota_sta_notaaist.AttackPoint",
			"width": 249,
			"x": 316,
			"y": 26
		}
	},
	"roles": [ {
		"categories": [],
		"name": "Role 0"
	} ],
	"root": {
		"children": [],
		"id": "Lca1FjL9fk465Z8p6cmPf2D1AEMel29F",
		"nodeType": "luaCommand",
		"parameters": [ {
			"name": "unitID",
			"value": "lugerID"
		}, {
			"name": "point",
			"value": "attackPosition"
		}, {
			"name": "scriptName",
			"value": "nota_sta_notaaist.AttackPoint"
		} ],
		"scriptName": "nota_sta_notaaist.AttackPoint"
	}
}